00110100000000010000000000000001
10101100000000010000000000000000
10101100000000010000000000000100
00110100000000100000000000001000
00110100000001010000000000001010
00001100000000000000000000010000
00100000101001011111111111111111
00010100101000001111111111111000
00001000000000000000000000011100
10001100010000111111111111111000
10001100010001001111111111111100
00000000011001000000100000100000
10101100010000010000000000000000
00100000010000100000000000000100
01001011111000000000000000000000
00001000000000000000000000000000
